run/wave/PositDivisionSqrt/PositDivSqrter32_2.vcd
$version Generated by VerilatedVcd $end
$date Tue Mar 10 22:09:20 2020
 $end
$timescale   1ns $end

 $scope module TOP $end
  $var wire  1 S clock $end
  $var wire 32 X io_A [31:0] $end
  $var wire 32 Y io_B [31:0] $end
  $var wire 32 ] io_Q [31:0] $end
  $var wire  1 Z io_diviValid $end
  $var wire  1 U io_inReady $end
  $var wire  1 V io_inValid $end
  $var wire  1 \ io_invalidExc $end
  $var wire  1 W io_sqrtOp $end
  $var wire  1 [ io_sqrtValid $end
  $var wire  1 T reset $end
  $scope module PositDivSqrter32_2 $end
   $var wire 30 Q bitMask [29:0] $end
   $var wire  1 S clock $end
   $var wire  5 F cycleNum [4:0] $end
   $var wire 27 1 decA_fraction [26:0] $end
   $var wire  1 2 decA_isNaR $end
   $var wire  1 3 decA_isZero $end
   $var wire  8 4 decA_scale [7:0] $end
   $var wire 27 5 decB_fraction [26:0] $end
   $var wire  1 6 decB_isNaR $end
   $var wire  1 7 decB_isZero $end
   $var wire  8 ^ decB_scale [7:0] $end
   $var wire  8 0 decQ_scale [7:0] $end
   $var wire  1 / decQ_sign $end
   $var wire  1 > entering $end
   $var wire  1 ? entering_normalCase $end
   $var wire 27 L fractB_Z [26:0] $end
   $var wire  1 O idle $end
   $var wire  1 ` invalidSqrt $end
   $var wire 32 X io_A [31:0] $end
   $var wire 32 Y io_B [31:0] $end
   $var wire 32 ] io_Q [31:0] $end
   $var wire  1 Z io_diviValid $end
   $var wire  1 U io_inReady $end
   $var wire  1 V io_inValid $end
   $var wire  1 \ io_invalidExc $end
   $var wire  1 W io_sqrtOp $end
   $var wire  1 [ io_sqrtValid $end
   $var wire  1 H isNaR_Z $end
   $var wire  1 I isZero_Z $end
   $var wire  1 E newBit $end
   $var wire  1 < normalCase_S $end
   $var wire  1 ; normalCase_S_div $end
   $var wire  1 a normalCase_S_sqrt $end
   $var wire  1 ) notNeedSubTwo $end
   $var wire  1 = oddSqrt_S $end
   $var wire  1 R outValid $end
   $var wire  1 . overflow $end
   $var wire  1 P ready $end
   $var wire  9 , realExp [8:0] $end
   $var wire 27 ' realFrac [26:0] $end
   $var wire 31 & realSigX [30:0] $end
   $var wire 31 @ rem [30:0] $end
   $var wire  1 D remIsZero $end
   $var wire 31 M rem_Z [30:0] $end
   $var wire  1 T reset $end
   $var wire  9 b sExpQuot_S_div [8:0] $end
   $var wire  1 ( scaleNeedSub $end
   $var wire  1 # scaleNotChange $end
   $var wire  1 * scaleSubOne $end
   $var wire  1 + scaleSubTwo $end
   $var wire  9 J scale_Z [8:0] $end
   $var wire 31 8 sigA_S [30:0] $end
   $var wire 31 _ sigB_S [30:0] $end
   $var wire  2 % sigXBias [1:0] $end
   $var wire 31 N sigX_Z [30:0] $end
   $var wire  1 K signB_Z $end
   $var wire  1 $ skipCycle2 $end
   $var wire  1 9 specialCaseA_S $end
   $var wire  1 : specialCaseB_S $end
   $var wire  1 G sqrtOp_Z $end
   $var wire  1 C trIsZero $end
   $var wire 31 B trialRem [30:0] $end
   $var wire 31 A trialTerm [30:0] $end
   $var wire  1 - underflow $end
  $upscope $end
 $upscope $end
$enddefinitions $end


#0
0#
0$
b00 %
b0000000000000000000000000000000 &
b000000000000000000000000000 '
1(
0)
0*
1+
b111111110 ,
0-
0.
0/
b11111110 0
b000000000000000000000000000 1
02
13
b10000100 4
b000000000000000000000000000 5
06
17
b0001000000000000000000000000000 8
19
1:
0;
0<
0=
0>
0?
b0001000000000000000000000000000 @
b0100000000000000000000000000000 A
b1101000000000000000000000000000 B
0C
0D
0E
b00000 F
0G
0H
0I
b000000000 J
0K
b000000000000000000000000000 L
b0000000000000000000000000000000 M
b0000000000000000000000000000000 N
1O
1P
b000000000000000000000000000000 Q
0R
0S
1T
1U
0V
0W
b00000000000000000000000000000000 X
b00000000000000000000000000000000 Y
0Z
0[
0\
b00110000000000000000000000000000 ]
b10000100 ^
b0100000000000000000000000000000 _
0`
0a
b000000000 b
#1
1S
#2
0S
#3
1S
#4
0S
#5
1S
#6
0S
#7
1S
#8
0S
#9
1S
#10
03
b00000000 4
07
09
0:
1;
1<
1>
1?
b1000000000000000000000000000000 A
b1001000000000000000000000000000 B
1E
0S
0T
1V
b01000000000000000000000000000000 X
b11000000000000000000000000000000 Y
b11111111 ^
b1000000000000000000000000000000 _
1a
b000000001 b
#11
1#
b10 %
b1000000000000000000000000000010 &
b000000000000000000000000001 '
0(
1)
0+
b000000001 ,
1/
b00000001 0
0>
0?
b1001000000000000000000000000000 @
b1010000000000000000000000000000 B
b11111 F
b000000001 J
1K
b1001000000000000000000000000000 M
b1000000000000000000000000000000 N
0O
0P
b100000000000000000000000000000 Q
1S
0U
b10110000000000000000000000000001 ]
#12
0S
0V
#13
b1100000000000000000000000000010 &
b1010000000000000000000000000000 @
b1100000000000000000000000000000 B
b11110 F
b1010000000000000000000000000000 M
b1100000000000000000000000000000 N
b010000000000000000000000000000 Q
1S
#14
0S
#15
0#
b01 %
b1110000000000000000000000000001 &
1(
1*
b000000000 ,
b00000000 0
b1100000000000000000000000000000 @
b0000000000000000000000000000000 B
1C
0E
b11101 F
b1100000000000000000000000000000 M
b1110000000000000000000000000000 N
b001000000000000000000000000000 Q
1S
b10111000000000000000000000000001 ]
#16
0S
#17
b0000000000000000000000000000000 @
b1000000000000000000000000000000 B
0C
1D
1E
b11100 F
b0000000000000000000000000000000 M
b000100000000000000000000000000 Q
1S
#18
0S
#19
b1110100000000000000000000000001 &
b100000000000000000000000001 '
b11011 F
b1110100000000000000000000000000 N
b000010000000000000000000000000 Q
1S
b10111100000000000000000000000001 ]
#20
0S
#21
b1110110000000000000000000000001 &
b110000000000000000000000001 '
b11010 F
b1110110000000000000000000000000 N
b000001000000000000000000000000 Q
1S
b10111110000000000000000000000001 ]
#22
0S
#23
b1110111000000000000000000000001 &
b111000000000000000000000001 '
b11001 F
b1110111000000000000000000000000 N
b000000100000000000000000000000 Q
1S
b10111111000000000000000000000001 ]
#24
0S
#25
b1110111100000000000000000000001 &
b111100000000000000000000001 '
b11000 F
b1110111100000000000000000000000 N
b000000010000000000000000000000 Q
1S
b10111111100000000000000000000001 ]
#26
0S
#27
b1110111110000000000000000000001 &
b111110000000000000000000001 '
b10111 F
b1110111110000000000000000000000 N
b000000001000000000000000000000 Q
1S
b10111111110000000000000000000001 ]
#28
0S
#29
b1110111111000000000000000000001 &
b111111000000000000000000001 '
b10110 F
b1110111111000000000000000000000 N
b000000000100000000000000000000 Q
1S
b10111111111000000000000000000001 ]
#30
0S
#31
b1110111111100000000000000000001 &
b111111100000000000000000001 '
b10101 F
b1110111111100000000000000000000 N
b000000000010000000000000000000 Q
1S
b10111111111100000000000000000001 ]
#32
0S
#33
b1110111111110000000000000000001 &
b111111110000000000000000001 '
b10100 F
b1110111111110000000000000000000 N
b000000000001000000000000000000 Q
1S
b10111111111110000000000000000001 ]
#34
0S
#35
b1110111111111000000000000000001 &
b111111111000000000000000001 '
b10011 F
b1110111111111000000000000000000 N
b000000000000100000000000000000 Q
1S
b10111111111111000000000000000001 ]
#36
0S
#37
b1110111111111100000000000000001 &
b111111111100000000000000001 '
b10010 F
b1110111111111100000000000000000 N
b000000000000010000000000000000 Q
1S
b10111111111111100000000000000001 ]
#38
0S
#39
b1110111111111110000000000000001 &
b111111111110000000000000001 '
b10001 F
b1110111111111110000000000000000 N
b000000000000001000000000000000 Q
1S
b10111111111111110000000000000001 ]
#40
0S
#41
b1110111111111111000000000000001 &
b111111111111000000000000001 '
b10000 F
b1110111111111111000000000000000 N
b000000000000000100000000000000 Q
1S
b10111111111111111000000000000001 ]
#42
0S
#43
b1110111111111111100000000000001 &
b111111111111100000000000001 '
b01111 F
b1110111111111111100000000000000 N
b000000000000000010000000000000 Q
1S
b10111111111111111100000000000001 ]
#44
0S
#45
b1110111111111111110000000000001 &
b111111111111110000000000001 '
b01110 F
b1110111111111111110000000000000 N
b000000000000000001000000000000 Q
1S
b10111111111111111110000000000001 ]
#46
0S
#47
b1110111111111111111000000000001 &
b111111111111111000000000001 '
b01101 F
b1110111111111111111000000000000 N
b000000000000000000100000000000 Q
1S
b10111111111111111111000000000001 ]
#48
0S
#49
b1110111111111111111100000000001 &
b111111111111111100000000001 '
b01100 F
b1110111111111111111100000000000 N
b000000000000000000010000000000 Q
1S
b10111111111111111111100000000001 ]
#50
0S
#51
b1110111111111111111110000000001 &
b111111111111111110000000001 '
b01011 F
b1110111111111111111110000000000 N
b000000000000000000001000000000 Q
1S
b10111111111111111111110000000001 ]
#52
0S
#53
b1110111111111111111111000000001 &
b111111111111111111000000001 '
b01010 F
b1110111111111111111111000000000 N
b000000000000000000000100000000 Q
1S
b10111111111111111111111000000001 ]
#54
0S
#55
b1110111111111111111111100000001 &
b111111111111111111100000001 '
b01001 F
b1110111111111111111111100000000 N
b000000000000000000000010000000 Q
1S
b10111111111111111111111100000001 ]
#56
0S
#57
b1110111111111111111111110000001 &
b111111111111111111110000001 '
b01000 F
b1110111111111111111111110000000 N
b000000000000000000000001000000 Q
1S
b10111111111111111111111110000001 ]
#58
0S
#59
b1110111111111111111111111000001 &
b111111111111111111111000001 '
b00111 F
b1110111111111111111111111000000 N
b000000000000000000000000100000 Q
1S
b10111111111111111111111111000001 ]
#60
0S
#61
b1110111111111111111111111100001 &
b111111111111111111111100001 '
b00110 F
b1110111111111111111111111100000 N
b000000000000000000000000010000 Q
1S
b10111111111111111111111111100001 ]
#62
0S
#63
b1110111111111111111111111110001 &
b111111111111111111111110001 '
b00101 F
b1110111111111111111111111110000 N
b000000000000000000000000001000 Q
1S
b10111111111111111111111111110001 ]
#64
0S
#65
b1110111111111111111111111111001 &
b111111111111111111111111001 '
b00100 F
b1110111111111111111111111111000 N
b000000000000000000000000000100 Q
1S
b10111111111111111111111111111001 ]
#66
0S
#67
b1110111111111111111111111111101 &
b111111111111111111111111101 '
b00011 F
b1110111111111111111111111111100 N
b000000000000000000000000000010 Q
1S
b10111111111111111111111111111101 ]
#68
0S
#69
b1110111111111111111111111111111 &
b111111111111111111111111111 '
b00010 F
b1110111111111111111111111111110 N
b000000000000000000000000000001 Q
1S
b10111111111111111111111111111111 ]
#70
0S
#71
b1111000000000000000000000000000 &
b000000000000000000000000000 '
0)
0*
1+
b111111111 ,
b11111111 0
b0001000000000000000000000000000 @
b1001000000000000000000000000000 B
0D
b00001 F
b1110111111111111111111111111111 N
1P
b000000000000000000000000000000 Q
1R
1S
1U
1Z
b11000000000000000000000000000000 ]
#72
0S
#73
b00000 F
1O
0R
1S
0Z
#74
0S
#75
1S
#76
0S
#77
1S
#78
0S
#79
1S
#80
0S
#81
1S
#82
b11111111 4
b1110000000000000000000000000000 8
1>
1?
b1110000000000000000000000000000 @
b0100000000000000000000000000000 A
b0010000000000000000000000000000 B
0S
1V
b11000000000000000000000000000000 X
b01000000000000000000000000000000 Y
b00000000 ^
b0100000000000000000000000000000 _
1`
0a
b111111111 b
#83
1#
b10 %
b1000000000000000000000000000010 &
b000000000000000000000000001 '
0(
1)
0+
0>
0?
b0010000000000000000000000000000 @
b0000000000000000000000000000000 B
1C
0E
b11111 F
b111111111 J
0K
b0010000000000000000000000000000 M
b1000000000000000000000000000000 N
0O
0P
b100000000000000000000000000000 Q
1S
0U
b11000000000000000000000000000001 ]
#84
0S
0V
#85
b0000000000000000000000000000000 @
b1100000000000000000000000000000 B
0C
1D
1E
b11110 F
b0000000000000000000000000000000 M
b010000000000000000000000000000 Q
1S
#86
0S
#87
0#
b01 %
b1010000000000000000000000000001 &
1(
1*
b111111110 ,
b11111110 0
b11101 F
b1010000000000000000000000000000 N
b001000000000000000000000000000 Q
1S
b11001000000000000000000000000001 ]
#88
0S
#89
b1011000000000000000000000000001 &
0)
0*
1+
b111111101 ,
b11111101 0
b11100 F
b1011000000000000000000000000000 N
b000100000000000000000000000000 Q
1S
b11010000000000000000000000000001 ]
#90
0S
#91
b1011100000000000000000000000001 &
b100000000000000000000000001 '
b11011 F
b1011100000000000000000000000000 N
b000010000000000000000000000000 Q
1S
b11010100000000000000000000000001 ]
#92
0S
#93
b1011110000000000000000000000001 &
b110000000000000000000000001 '
b11010 F
b1011110000000000000000000000000 N
b000001000000000000000000000000 Q
1S
b11010110000000000000000000000001 ]
#94
0S
#95
b1011111000000000000000000000001 &
b111000000000000000000000001 '
b11001 F
b1011111000000000000000000000000 N
b000000100000000000000000000000 Q
1S
b11010111000000000000000000000001 ]
#96
0S
#97
b1011111100000000000000000000001 &
b111100000000000000000000001 '
b11000 F
b1011111100000000000000000000000 N
b000000010000000000000000000000 Q
1S
b11010111100000000000000000000001 ]
#98
0S
#99
b1011111110000000000000000000001 &
b111110000000000000000000001 '
b10111 F
b1011111110000000000000000000000 N
b000000001000000000000000000000 Q
1S
b11010111110000000000000000000001 ]
#100
0S
#101
b1011111111000000000000000000001 &
b111111000000000000000000001 '
b10110 F
b1011111111000000000000000000000 N
b000000000100000000000000000000 Q
1S
b11010111111000000000000000000001 ]
#102
0S
#103
b1011111111100000000000000000001 &
b111111100000000000000000001 '
b10101 F
b1011111111100000000000000000000 N
b000000000010000000000000000000 Q
1S
b11010111111100000000000000000001 ]
#104
0S
#105
b1011111111110000000000000000001 &
b111111110000000000000000001 '
b10100 F
b1011111111110000000000000000000 N
b000000000001000000000000000000 Q
1S
b11010111111110000000000000000001 ]
#106
0S
#107
b1011111111111000000000000000001 &
b111111111000000000000000001 '
b10011 F
b1011111111111000000000000000000 N
b000000000000100000000000000000 Q
1S
b11010111111111000000000000000001 ]
#108
0S
#109
b1011111111111100000000000000001 &
b111111111100000000000000001 '
b10010 F
b1011111111111100000000000000000 N
b000000000000010000000000000000 Q
1S
b11010111111111100000000000000001 ]
#110
0S
#111
b1011111111111110000000000000001 &
b111111111110000000000000001 '
b10001 F
b1011111111111110000000000000000 N
b000000000000001000000000000000 Q
1S
b11010111111111110000000000000001 ]
#112
0S
#113
b1011111111111111000000000000001 &
b111111111111000000000000001 '
b10000 F
b1011111111111111000000000000000 N
b000000000000000100000000000000 Q
1S
b11010111111111111000000000000001 ]
#114
0S
#115
b1011111111111111100000000000001 &
b111111111111100000000000001 '
b01111 F
b1011111111111111100000000000000 N
b000000000000000010000000000000 Q
1S
b11010111111111111100000000000001 ]
#116
0S
#117
b1011111111111111110000000000001 &
b111111111111110000000000001 '
b01110 F
b1011111111111111110000000000000 N
b000000000000000001000000000000 Q
1S
b11010111111111111110000000000001 ]
#118
0S
#119
b1011111111111111111000000000001 &
b111111111111111000000000001 '
b01101 F
b1011111111111111111000000000000 N
b000000000000000000100000000000 Q
1S
b11010111111111111111000000000001 ]
#120
0S
#121
b1011111111111111111100000000001 &
b111111111111111100000000001 '
b01100 F
b1011111111111111111100000000000 N
b000000000000000000010000000000 Q
1S
b11010111111111111111100000000001 ]
#122
0S
#123
b1011111111111111111110000000001 &
b111111111111111110000000001 '
b01011 F
b1011111111111111111110000000000 N
b000000000000000000001000000000 Q
1S
b11010111111111111111110000000001 ]
#124
0S
#125
b1011111111111111111111000000001 &
b111111111111111111000000001 '
b01010 F
b1011111111111111111111000000000 N
b000000000000000000000100000000 Q
1S
b11010111111111111111111000000001 ]
#126
0S
#127
b1011111111111111111111100000001 &
b111111111111111111100000001 '
b01001 F
b1011111111111111111111100000000 N
b000000000000000000000010000000 Q
1S
b11010111111111111111111100000001 ]
#128
0S
#129
b1011111111111111111111110000001 &
b111111111111111111110000001 '
b01000 F
b1011111111111111111111110000000 N
b000000000000000000000001000000 Q
1S
b11010111111111111111111110000001 ]
#130
0S
#131
b1011111111111111111111111000001 &
b111111111111111111111000001 '
b00111 F
b1011111111111111111111111000000 N
b000000000000000000000000100000 Q
1S
b11010111111111111111111111000001 ]
#132
0S
#133
b1011111111111111111111111100001 &
b111111111111111111111100001 '
b00110 F
b1011111111111111111111111100000 N
b000000000000000000000000010000 Q
1S
b11010111111111111111111111100001 ]
#134
0S
#135
b1011111111111111111111111110001 &
b111111111111111111111110001 '
b00101 F
b1011111111111111111111111110000 N
b000000000000000000000000001000 Q
1S
b11010111111111111111111111110001 ]
#136
0S
#137
b1011111111111111111111111111001 &
b111111111111111111111111001 '
b00100 F
b1011111111111111111111111111000 N
b000000000000000000000000000100 Q
1S
b11010111111111111111111111111001 ]
#138
0S
#139
b1011111111111111111111111111101 &
b111111111111111111111111101 '
b00011 F
b1011111111111111111111111111100 N
b000000000000000000000000000010 Q
1S
b11010111111111111111111111111101 ]
#140
0S
#141
b1011111111111111111111111111111 &
b111111111111111111111111111 '
b00010 F
b1011111111111111111111111111110 N
b000000000000000000000000000001 Q
1S
b11010111111111111111111111111111 ]
#142
0S
#143
b1100000000000000000000000000000 &
b000000000000000000000000000 '
0(
1)
0+
b111111111 ,
b11111111 0
b1110000000000000000000000000000 @
b0010000000000000000000000000000 B
0D
b00001 F
b1011111111111111111111111111111 N
1P
b000000000000000000000000000000 Q
1R
1S
1U
1Z
b11000000000000000000000000000000 ]
#144
0S
#145
b00000 F
1O
0R
1S
0Z
#146
0S
#147
1S
#148
0S
#149
1S
#150
0S
#151
1S
#152
0S
#153
1S
#154
b00000000 4
b0001000000000000000000000000000 8
1>
1?
b0001000000000000000000000000000 @
b1101000000000000000000000000000 B
0E
0S
1V
b01000000000000000000000000000000 X
0`
1a
b000000000 b
#155
b00 %
b0000000000000000000000000000000 &
1(
0)
1+
b111111110 ,
0/
b11111110 0
0>
0?
b1101000000000000000000000000000 @
b1110000000000000000000000000000 B
b11111 F
b000000000 J
b1101000000000000000000000000000 M
b0000000000000000000000000000000 N
0O
0P
b100000000000000000000000000000 Q
1S
0U
b00110000000000000000000000000000 ]
#156
0S
0V
#157
b1110000000000000000000000000000 @
b0000000000000000000000000000000 B
1C
1E
b11110 F
b1110000000000000000000000000000 M
b010000000000000000000000000000 Q
1S
#158
0S
#159
1#
b0010000000000000000000000000000 &
0(
0+
b000000000 ,
b00000000 0
b0000000000000000000000000000000 @
b1100000000000000000000000000000 B
0C
1D
0E
b11101 F
b0000000000000000000000000000000 M
b0010000000000000000000000000000 N
b001000000000000000000000000000 Q
1S
b01000000000000000000000000000000 ]
#160
0S
#161
b11100 F
b000100000000000000000000000000 Q
1S
#162
0S
#163
b11011 F
b000010000000000000000000000000 Q
1S
#164
0S
#165
b11010 F
b000001000000000000000000000000 Q
1S
#166
0S
#167
b11001 F
b000000100000000000000000000000 Q
1S
#168
0S
#169
b11000 F
b000000010000000000000000000000 Q
1S
#170
0S
#171
b10111 F
b000000001000000000000000000000 Q
1S
#172
0S
#173
b10110 F
b000000000100000000000000000000 Q
1S
#174
0S
#175
b10101 F
b000000000010000000000000000000 Q
1S
#176
0S
#177
b10100 F
b000000000001000000000000000000 Q
1S
#178
0S
#179
b10011 F
b000000000000100000000000000000 Q
1S
#180
0S
#181
b10010 F
b000000000000010000000000000000 Q
1S
#182
0S
#183
b10001 F
b000000000000001000000000000000 Q
1S
#184
0S
#185
b10000 F
b000000000000000100000000000000 Q
1S
#186
0S
#187
b01111 F
b000000000000000010000000000000 Q
1S
#188
0S
#189
b01110 F
b000000000000000001000000000000 Q
1S
#190
0S
#191
b01101 F
b000000000000000000100000000000 Q
1S
#192
0S
#193
b01100 F
b000000000000000000010000000000 Q
1S
#194
0S
#195
b01011 F
b000000000000000000001000000000 Q
1S
#196
0S
#197
b01010 F
b000000000000000000000100000000 Q
1S
#198
0S
#199
b01001 F
b000000000000000000000010000000 Q
1S
#200
0S
#201
b01000 F
b000000000000000000000001000000 Q
1S
#202
0S
#203
b00111 F
b000000000000000000000000100000 Q
1S
#204
0S
#205
b00110 F
b000000000000000000000000010000 Q
1S
#206
0S
#207
b00101 F
b000000000000000000000000001000 Q
1S
#208
0S
#209
b00100 F
b000000000000000000000000000100 Q
1S
#210
0S
#211
1$
b00011 F
b000000000000000000000000000010 Q
1S
#212
0S
#213
0$
b0001000000000000000000000000000 @
b1101000000000000000000000000000 B
0D
b00001 F
1P
b000000000000000000000000000000 Q
1R
1S
1U
1Z
#214
0S
#215
b00000 F
1O
0R
1S
0Z
#216
0S
#217
1S
#218
0S
#219
1S
#220
0S
#221
1S
#222
0S
#223
1S
#224
0S
#225
1S
#226
b11111111 4
b1110000000000000000000000000000 8
1>
1?
b1110000000000000000000000000000 @
b1000000000000000000000000000000 A
b0110000000000000000000000000000 B
0S
1V
b11000000000000000000000000000000 X
b11000000000000000000000000000000 Y
b11111111 ^
b1000000000000000000000000000000 _
1`
0a
#227
0#
b0000000000000000000000000000000 &
1(
1+
b111111110 ,
b11111110 0
0>
0?
b0110000000000000000000000000000 @
b0100000000000000000000000000000 B
b11111 F
1K
b0110000000000000000000000000000 M
b0000000000000000000000000000000 N
0O
0P
b100000000000000000000000000000 Q
1S
0U
b00110000000000000000000000000000 ]
#228
0S
0V
#229
b0100000000000000000000000000000 @
b0000000000000000000000000000000 B
1C
1E
b11110 F
b0100000000000000000000000000000 M
b010000000000000000000000000000 Q
1S
#230
0S
#231
1#
b0010000000000000000000000000000 &
0(
0+
b000000000 ,
b00000000 0
b0000000000000000000000000000000 @
b1000000000000000000000000000000 B
0C
1D
0E
b11101 F
b0000000000000000000000000000000 M
b0010000000000000000000000000000 N
b001000000000000000000000000000 Q
1S
b01000000000000000000000000000000 ]
#232
0S
#233
b11100 F
b000100000000000000000000000000 Q
1S
#234
0S
#235
b11011 F
b000010000000000000000000000000 Q
1S
#236
0S
#237
b11010 F
b000001000000000000000000000000 Q
1S
#238
0S
#239
b11001 F
b000000100000000000000000000000 Q
1S
#240
0S
#241
b11000 F
b000000010000000000000000000000 Q
1S
#242
0S
#243
b10111 F
b000000001000000000000000000000 Q
1S
#244
0S
#245
b10110 F
b000000000100000000000000000000 Q
1S
#246
0S
#247
b10101 F
b000000000010000000000000000000 Q
1S
#248
0S
#249
b10100 F
b000000000001000000000000000000 Q
1S
#250
0S
#251
b10011 F
b000000000000100000000000000000 Q
1S
#252
0S
#253
b10010 F
b000000000000010000000000000000 Q
1S
#254
0S
#255
b10001 F
b000000000000001000000000000000 Q
1S
#256
0S
#257
b10000 F
b000000000000000100000000000000 Q
1S
#258
0S
#259
b01111 F
b000000000000000010000000000000 Q
1S
#260
0S
#261
b01110 F
b000000000000000001000000000000 Q
1S
#262
0S
#263
b01101 F
b000000000000000000100000000000 Q
1S
#264
0S
#265
b01100 F
b000000000000000000010000000000 Q
1S
#266
0S
#267
b01011 F
b000000000000000000001000000000 Q
1S
#268
0S
#269
b01010 F
b000000000000000000000100000000 Q
1S
#270
0S
#271
b01001 F
b000000000000000000000010000000 Q
1S
#272
0S
#273
b01000 F
b000000000000000000000001000000 Q
1S
#274
0S
#275
b00111 F
b000000000000000000000000100000 Q
1S
#276
0S
#277
b00110 F
b000000000000000000000000010000 Q
1S
#278
0S
#279
b00101 F
b000000000000000000000000001000 Q
1S
#280
0S
#281
b00100 F
b000000000000000000000000000100 Q
1S
#282
0S
#283
1$
b00011 F
b000000000000000000000000000010 Q
1S
#284
0S
#285
0$
b1110000000000000000000000000000 @
b0110000000000000000000000000000 B
0D
b00001 F
1P
b000000000000000000000000000000 Q
1R
1S
1U
1Z
#286
0S
#287
b00000 F
1O
0R
1S
0Z
#288
0S
#289
1S
#290
0S
#291
1S
#292
0S
#293
1S
#294
0S
#295
1S
#296
0S
#297
1S
#298
b001100000000000000000000000 1
b00000011 4
b110110000000000000000000000 5
b0001001100000000000000000000000 8
1>
1?
b0001001100000000000000000000000 @
b1011011000000000000000000000000 A
b1100100100000000000000000000000 B
1E
0S
1V
b01011001100000000000000000000000 X
b10011111011000000000000000000000 Y
b00000100 ^
b1011011000000000000000000000000 _
0`
1a
b111111111 b
#299
b10 %
b1000000000000000000000000000010 &
b000000000000000000000000001 '
1)
b111111111 ,
1/
b11111111 0
0>
0?
b1100100100000000000000000000000 @
b1101110000000000000000000000000 B
b11111 F
b111111111 J
b110110000000000000000000000 L
b1100100100000000000000000000000 M
b1000000000000000000000000000000 N
0O
0P
b100000000000000000000000000000 Q
1S
0U
b11000000000000000000000000000001 ]
#300
0S
0V
#301
b1100000000000000000000000000010 &
b1101110000000000000000000000000 @
b0000001000000000000000000000000 B
0E
b11110 F
b1101110000000000000000000000000 M
b1100000000000000000000000000000 N
b010000000000000000000000000000 Q
1S
#302
0S
#303
b0000001000000000000000000000000 @
b1011101000000000000000000000000 B
1E
b11101 F
b0000001000000000000000000000000 M
b001000000000000000000000000000 Q
1S
#304
0S
#305
b1101000000000000000000000000010 &
b100000000000000000000000001 '
0)
b1011101000000000000000000000000 @
b1011111000000000000000000000000 B
b11100 F
b1011101000000000000000000000000 M
b1101000000000000000000000000000 N
b000100000000000000000000000000 Q
1S
b11000100000000000000000000000001 ]
#306
0S
#307
b1101100000000000000000000000010 &
b110000000000000000000000001 '
b1011111000000000000000000000000 @
b1100011000000000000000000000000 B
b11011 F
b1011111000000000000000000000000 M
b1101100000000000000000000000000 N
b000010000000000000000000000000 Q
1S
b11000110000000000000000000000001 ]
#308
0S
#309
b1101110000000000000000000000010 &
b111000000000000000000000001 '
b1100011000000000000000000000000 @
b1101011000000000000000000000000 B
b11010 F
b1100011000000000000000000000000 M
b1101110000000000000000000000000 N
b000001000000000000000000000000 Q
1S
b11000111000000000000000000000001 ]
#310
0S
#311
b1101111000000000000000000000010 &
b111100000000000000000000001 '
b1101011000000000000000000000000 @
b1111011000000000000000000000000 B
b11001 F
b1101011000000000000000000000000 M
b1101111000000000000000000000000 N
b000000100000000000000000000000 Q
1S
b11000111100000000000000000000001 ]
#312
0S
#313
b1101111100000000000000000000010 &
b111110000000000000000000001 '
b1111011000000000000000000000000 @
b0011011000000000000000000000000 B
0E
b11000 F
b1111011000000000000000000000000 M
b1101111100000000000000000000000 N
b000000010000000000000000000000 Q
1S
b11000111110000000000000000000001 ]
#314
0S
#315
b0011011000000000000000000000000 @
b0010001000000000000000000000000 B
b10111 F
b0011011000000000000000000000000 M
b000000001000000000000000000000 Q
1S
#316
0S
#317
b0010001000000000000000000000000 @
b1111101000000000000000000000000 B
1E
b10110 F
b0010001000000000000000000000000 M
b000000000100000000000000000000 Q
1S
#318
0S
#319
b1101111100100000000000000000010 &
b111110010000000000000000001 '
b1111101000000000000000000000000 @
b0011111000000000000000000000000 B
0E
b10101 F
b1111101000000000000000000000000 M
b1101111100100000000000000000000 N
b000000000010000000000000000000 Q
1S
b11000111110010000000000000000001 ]
#320
0S
#321
b0011111000000000000000000000000 @
b0011001000000000000000000000000 B
b10100 F
b0011111000000000000000000000000 M
b000000000001000000000000000000 Q
1S
#322
0S
#323
b0011001000000000000000000000000 @
b0001101000000000000000000000000 B
b10011 F
b0011001000000000000000000000000 M
b000000000000100000000000000000 Q
1S
#324
0S
#325
b0001101000000000000000000000000 @
b1110101000000000000000000000000 B
1E
b10010 F
b0001101000000000000000000000000 M
b000000000000010000000000000000 Q
1S
#326
0S
#327
b1101111100100010000000000000010 &
b111110010001000000000000001 '
b1110101000000000000000000000000 @
b0001111000000000000000000000000 B
0E
b10001 F
b1110101000000000000000000000000 M
b1101111100100010000000000000000 N
b000000000000001000000000000000 Q
1S
b11000111110010001000000000000001 ]
#328
0S
#329
b0001111000000000000000000000000 @
b1111001000000000000000000000000 B
1E
b10000 F
b0001111000000000000000000000000 M
b000000000000000100000000000000 Q
1S
#330
0S
#331
b1101111100100010100000000000010 &
b111110010001010000000000001 '
b1111001000000000000000000000000 @
b0010111000000000000000000000000 B
0E
b01111 F
b1111001000000000000000000000000 M
b1101111100100010100000000000000 N
b000000000000000010000000000000 Q
1S
b11000111110010001010000000000001 ]
#332
0S
#333
b0010111000000000000000000000000 @
b0001001000000000000000000000000 B
b01110 F
b0010111000000000000000000000000 M
b000000000000000001000000000000 Q
1S
#334
0S
#335
b0001001000000000000000000000000 @
b1101101000000000000000000000000 B
1E
b01101 F
b0001001000000000000000000000000 M
b000000000000000000100000000000 Q
1S
#336
0S
#337
b1101111100100010100100000000010 &
b111110010001010010000000001 '
b1101101000000000000000000000000 @
b1111111000000000000000000000000 B
b01100 F
b1101101000000000000000000000000 M
b1101111100100010100100000000000 N
b000000000000000000010000000000 Q
1S
b11000111110010001010010000000001 ]
#338
0S
#339
b1101111100100010100110000000010 &
b111110010001010011000000001 '
b1111111000000000000000000000000 @
b0100011000000000000000000000000 B
0E
b01011 F
b1111111000000000000000000000000 M
b1101111100100010100110000000000 N
b000000000000000000001000000000 Q
1S
b11000111110010001010011000000001 ]
#340
0S
#341
b0100011000000000000000000000000 @
b0100001000000000000000000000000 B
b01010 F
b0100011000000000000000000000000 M
b000000000000000000000100000000 Q
1S
#342
0S
#343
b0100001000000000000000000000000 @
b0011101000000000000000000000000 B
b01001 F
b0100001000000000000000000000000 M
b000000000000000000000010000000 Q
1S
#344
0S
#345
b0011101000000000000000000000000 @
b0010101000000000000000000000000 B
b01000 F
b0011101000000000000000000000000 M
b000000000000000000000001000000 Q
1S
#346
0S
#347
b0010101000000000000000000000000 @
b0000101000000000000000000000000 B
b00111 F
b0010101000000000000000000000000 M
b000000000000000000000000100000 Q
1S
#348
0S
#349
b0000101000000000000000000000000 @
b1100101000000000000000000000000 B
1E
b00110 F
b0000101000000000000000000000000 M
b000000000000000000000000010000 Q
1S
#350
0S
#351
b1101111100100010100110000010010 &
b111110010001010011000001001 '
b1100101000000000000000000000000 @
b1101111000000000000000000000000 B
b00101 F
b1100101000000000000000000000000 M
b1101111100100010100110000010000 N
b000000000000000000000000001000 Q
1S
b11000111110010001010011000001001 ]
#352
0S
