run/wave/PositAdder/PositAdder32_2.vcd
$version Generated by VerilatedVcd $end
$date Tue Mar 10 22:08:19 2020
 $end
$timescale   1ns $end

 $scope module TOP $end
  $var wire  1 > clock $end
  $var wire 32 @ io_A [31:0] $end
  $var wire 32 A io_B [31:0] $end
  $var wire 32 B io_S [31:0] $end
  $var wire  1 ? reset $end
  $scope module PositAdder32_2 $end
   $var wire  1 ' aGTb $end
   $var wire  1 > clock $end
   $var wire 27 # decA_fraction [26:0] $end
   $var wire  1 C decA_isNaR $end
   $var wire  1 D decA_isZero $end
   $var wire  8 $ decA_scale [7:0] $end
   $var wire 27 % decB_fraction [26:0] $end
   $var wire  1 E decB_isNaR $end
   $var wire  1 F decB_isZero $end
   $var wire  8 & decB_scale [7:0] $end
   $var wire 27 < decS_fraction [26:0] $end
   $var wire  1 G decS_isNaR $end
   $var wire  1 H decS_isZero $end
   $var wire  8 = decS_scale [7:0] $end
   $var wire  8 * greaterExp [7:0] $end
   $var wire 27 , greaterFrac [26:0] $end
   $var wire 29 / greaterSig [28:0] $end
   $var wire  1 ( greaterSign $end
   $var wire 32 @ io_A [31:0] $end
   $var wire 32 A io_B [31:0] $end
   $var wire 32 B io_S [31:0] $end
   $var wire  6 : normalShift [5:0] $end
   $var wire  1 9 overflow $end
   $var wire 30 1 rawSumSig [29:0] $end
   $var wire  1 ? reset $end
   $var wire  7 7 scaleBias [6:0] $end
   $var wire  8 . scale_diff [7:0] $end
   $var wire 31 ; shiftSig [30:0] $end
   $var wire 33 3 signSumSig [32:0] $end
   $var wire  8 + smallerExp [7:0] $end
   $var wire 27 - smallerFrac [26:0] $end
   $var wire 32 0 smallerSig [31:0] $end
   $var wire  1 ) smallerSign $end
   $var wire  6 6 sumLZD [5:0] $end
   $var wire  9 8 sumScale [8:0] $end
   $var wire  1 2 sumSign $end
   $var wire 32 5 sumXor [31:0] $end
  $upscope $end
 $upscope $end
$enddefinitions $end


#0
b000000000000000000000000000 #
b10000100 $
b000000000000000000000000000 %
b10000100 &
0'
0(
0)
b10000100 *
b10000100 +
b000000000000000000000000000 ,
b000000000000000000000000000 -
b00000000 .
b01000000000000000000000000000 /
b01000000000000000000000000000000 0
b010000000000000000000000000000 1
02
b010000000000000000000000000000000 3
b11000000000000000000000000000000 5
b111111 6
b0000001 7
b110000101 8
09
b000000 :
b0000000000000000000000000000000 ;
b000000000000000000000000000 <
b10000101 =
0>
1?
b00000000000000000000000000000000 @
b00000000000000000000000000000000 A
b00000000000000000000000000000000 B
0C
1D
0E
1F
0G
1H
#1
1>
#2
0>
#3
1>
#4
0>
#5
1>
#6
0>
#7
1>
#8
0>
#9
1>
#10
b001100000000000000000000000 #
b00000011 $
b110110000000000000000000000 %
b00000100 &
1(
b00000100 *
b00000011 +
b110110000000000000000000000 ,
b001100000000000000000000000 -
b00000001 .
b10110110000000000000000000000 /
b00100110000000000000000000000000 0
b011011100000000000000000000000 1
12
b111011100000000000000000000000000 3
b00110010000000000000000000000000 5
b111101 6
b1111111 7
b000000011 8
b000010 :
b1110000000000000000000000000000 ;
b111000000000000000000000000 <
b00000011 =
0>
0?
b01011001100000000000000000000000 @
b10011111011000000000000000000000 A
b10100111000000000000000000000000 B
0D
0F
0H
#11
1>
#12
b001110001000011000000000000 #
b00001101 $
b110000100000000000000000000 %
b00000111 &
1'
0(
b00001101 *
b00000111 +
b001110001000011000000000000 ,
b110000100000000000000000000 -
b00000110 .
b01001110001000011000000000000 /
b00000001110000100000000000000000 0
b001001111111000111000000000000 1
02
b001001111111000111000000000000000 3
b01101000000100100100000000000000 5
b111110 6
b0000000 7
b000001101 8
b000001 :
b0011111110001110000000000000000 ;
b001111111000111000000000000 <
b00001101 =
0>
b01111001001110001000011000000000 @
b01101111000010000000000000000000 A
b01111001001111111000111000000000 B
#13
1>
#14
b000000000000000000000000000 #
b11111100 $
b000000000000000000000000000 %
b11111010 &
1(
1)
b11111100 *
b11111010 +
b000000000000000000000000000 ,
b000000000000000000000000000 -
b00000010 .
b10000000000000000000000000000 /
b11100000000000000000000000000000 0
b101100000000000000000000000000 1
12
b101100000000000000000000000000000 3
b11010000000000000000000000000000 5
b111111 6
b0000001 7
b111111101 8
b000000 :
b1100000000000000000000000000000 ;
b110000000000000000000000000 <
b11111101 =
0>
b11011000000000000000000000000000 @
b11100100000000000000000000000000 A
b11010110000000000000000000000000 B
#15
1>
#16
b110111100000000000000000000 #
b00000101 $
b100010001000000000000000000 %
b00000110 &
0'
0(
b00000110 *
b00000101 +
b100010001000000000000000000 ,
b110111100000000000000000000 -
b00000001 .
b01100010001000000000000000000 /
b11011011110000000000000000000000 0
b100111101111000000000000000000 1
02
b000111101111000000000000000000000 3
b00100011000100000000000000000000 5
b111101 6
b1111111 7
b000000101 8
b000010 :
b1110111100000000000000000000000 ;
b111011110000000000000000000 <
b00000101 =
0>
b10011011011110000000000000000000 @
b01101010001000100000000000000000 A
b01100111101111000000000000000000 B
#17
1>
#18
b000000000000000000000000000 #
b01111011 $
b000000000000000000000000000 %
b10000100 &
1'
1(
0)
b01111011 *
b10000100 +
b000000000000000000000000000 ,
b000000000000000000000000000 -
b11110111 .
b10000000000000000000000000000 /
b00000000000000000000000000000000 0
b010000000000000000000000000000 1
12
b110000000000000000000000000000000 3
b01000000000000000000000000000000 5
b111110 6
b0000000 7
b001111011 8
19
b000001 :
b0000000000000000000000000000000 ;
b000000000000000000000000000 <
b01111000 =
0>
b10000000000000000000000000000000 @
b00000000000000000000000000000000 A
b10000000000000000000000000000000 B
1C
1F
1G
#19
1>
#20
b00000000 $
b11111111 &
0(
1)
b00000000 *
b11111111 +
b00000001 .
b01000000000000000000000000000 /
b11000000000000000000000000000000 0
b100000000000000000000000000000 1
02
b000000000000000000000000000000000 3
b00000000000000000000000000000000 5
b011111 6
b1100001 7
b111100001 8
09
b100000 :
b11100001 =
0>
b01000000000000000000000000000000 @
b11000000000000000000000000000000 A
b00000000000000000000000000000000 B
0C
0F
0G
1H
#21
1>
#22
b11111111 $
b00000000 &
0'
0>
b11000000000000000000000000000000 @
b01000000000000000000000000000000 A
#23
1>
#24
b10001000 $
b10000100 &
1'
0)
b10001000 *
b10000100 +
b00000100 .
b00000100000000000000000000000000 0
b001000100000000000000000000000 1
b001000100000000000000000000000000 3
b01100110000000000000000000000000 5
b111110 6
b0000000 7
b110001000 8
b000001 :
b0001000000000000000000000000000 ;
b000100000000000000000000000 <
b10001000 =
0>
b00000000000000000000000000000001 @
b00000000000000000000000000000000 A
b00000000000000000000000000000001 B
1F
0H
#25
1>
#26
b01111000 $
b01111000 &
0'
b01111000 *
b01111000 +
b00000000 .
b01000000000000000000000000000000 0
b010000000000000000000000000000 1
b010000000000000000000000000000000 3
b11000000000000000000000000000000 5
b111111 6
b0000001 7
b001111001 8
19
b000000 :
b0000000000000000000000000000000 ;
b000000000000000000000000000 <
b01111000 =
0>
b01111111111111111111111111111111 @
b01111111111111111111111111111111 A
b01111111111111111111111111111111 B
0F
#27
1>
#28
b10000111 $
b10000111 &
1(
1)
b10000111 *
b10000111 +
b10000000000000000000000000000 /
b10000000000000000000000000000000 0
b100000000000000000000000000000 1
12
b100000000000000000000000000000000 3
b10000000000000000000000000000000 5
b110001000 8
09
b10001000 =
0>
b11111111111111111111111111111111 @
b11111111111111111111111111111111 A
b11111111111111111111111111111111 B
#29
1>
#30
b10001000 &
0(
b10001000 *
b00000001 .
b01000000000000000000000000000 /
b11000000000000000000000000000000 0
02
b000000000000000000000000000000000 3
b00000000000000000000000000000000 5
b011111 6
b1100001 7
b101101001 8
b100000 :
b01101001 =
0>
b00000000000000000000000000000001 A
b00000000000000000000000000000000 B
1H
#31
1>
#32
b01110111 $
b01111000 &
b01111000 *
b01110111 +
b001011001 8
b01011001 =
0>
b10000000000000000000000000000001 @
b01111111111111111111111111111111 A
#33
1>
#34
b001100000000000000000000000 #
b00000011 $
b110100000000000000000000000 %
b00000011 &
1(
0)
b00000011 *
b00000011 +
b110100000000000000000000000 ,
b001100000000000000000000000 -
b00000000 .
b10110100000000000000000000000 /
b01001100000000000000000000000000 0
b111100100 8
b11100100 =
0>
b01011001100000000000000000000000 @
b10100110100000000000000000000000 A
